/media/thk/workspace/gitlab_proj/tklabeller/proj-01/images/tuna-01.jpg,1600,1006,tuna,1202,461,1208,403,1173,454,1096,438,1116,408,1069,435,996,445,935,468,920,489,966,519,1034,519,1088,507,1135,524,1112,494,1175,471,1191,518,1203,524
/media/thk/workspace/gitlab_proj/tklabeller/proj-01/images/tuna-01.jpg,1600,1006,tuna,396,396,755,549
/media/thk/workspace/gitlab_proj/tklabeller/proj-01/images/tuna-01.jpg,1600,1006,tuna,50,629,363,812
/media/thk/workspace/gitlab_proj/tklabeller/proj-01/images/tuna-01.jpg,1600,1006,tuna,603,539,886,683
/media/thk/workspace/gitlab_proj/tklabeller/proj-01/images/tuna-01.jpg,1600,1006,tuna,123,582,314,677
/media/thk/workspace/gitlab_proj/tklabeller/proj-01/images/tuna-01.jpg,1600,1006,tuna,729,457,799,456,876,488,895,534,883,550,841,550,729,476
/media/thk/workspace/gitlab_proj/tklabeller/proj-01/images/tuna-01.jpg,1600,1006,tuna,429,527,622,597
/media/thk/workspace/gitlab_proj/tklabeller/proj-01/images/tuna-01.jpg,1600,1006,human,771,768,850,956
/media/thk/workspace/gitlab_proj/tklabeller/proj-01/images/tuna-01.jpg,1600,1006,human,819,747,949,990
/media/thk/workspace/gitlab_proj/tklabeller/proj-01/images/tuna-01.jpg,1600,1006,human,653,710,789,991
/media/thk/workspace/gitlab_proj/tklabeller/proj-01/images/tuna-01.jpg,1600,1006,tuna,1450,450,1587,552
/media/thk/workspace/gitlab_proj/tklabeller/proj-01/images/tuna-01.jpg,1600,1006,tuna,1462,377,1585,479
/media/thk/workspace/gitlab_proj/tklabeller/proj-01/images/tuna-01.jpg,1600,1006,tuna,753,645,974,737
/media/thk/workspace/gitlab_proj/tklabeller/proj-01/images/tuna-01.jpg,1600,1006,tuna,76,385,296,493
/media/thk/workspace/gitlab_proj/tklabeller/proj-01/images/tuna-01.jpg,1600,1006,tuna,376,195,547,338
