/media/thk/workspace/gitlab_proj/tklabeller/proj-01/images/tuna-02.jpg,800,535,human,149,7,332,517
/media/thk/workspace/gitlab_proj/tklabeller/proj-01/images/tuna-02.jpg,800,535,tuna,330,229,538,485
/media/thk/workspace/gitlab_proj/tklabeller/proj-01/images/tuna-02.jpg,800,535,human,439,19,603,296
/media/thk/workspace/gitlab_proj/tklabeller/proj-01/images/tuna-02.jpg,800,535,human,303,73,425,212
