/media/thk/workspace/gitlab_proj/tklabeller/proj-02/images/twice02.jpg,1024,887,Jeongyeon,531,104,588,184
/media/thk/workspace/gitlab_proj/tklabeller/proj-02/images/twice02.jpg,1024,887,Momo,837,61,894,157
/media/thk/workspace/gitlab_proj/tklabeller/proj-02/images/twice02.jpg,1024,887,Mina,209,67,278,162
/media/thk/workspace/gitlab_proj/tklabeller/proj-02/images/twice02.jpg,1024,887,Chaeyoung,775,94,837,179
/media/thk/workspace/gitlab_proj/tklabeller/proj-02/images/twice02.jpg,1024,887,Jihyo,137,103,196,181
