/media/thk/workspace/gitlab_proj/tklabeller/proj-02/images/twice04.jpg,1438,880,Nayeon,313,323,387,429
/media/thk/workspace/gitlab_proj/tklabeller/proj-02/images/twice04.jpg,1438,880,Momo,1192,69,1266,155
/media/thk/workspace/gitlab_proj/tklabeller/proj-02/images/twice04.jpg,1438,880,Sana,777,425,753,397,748,344,774,325,822,390,806,414
/media/thk/workspace/gitlab_proj/tklabeller/proj-02/images/twice04.jpg,1438,880,Jihyo,887,70,951,172
/media/thk/workspace/gitlab_proj/tklabeller/proj-02/images/twice04.jpg,1438,880,Mina,711,61,775,159
/media/thk/workspace/gitlab_proj/tklabeller/proj-02/images/twice04.jpg,1438,880,Dahyun,573,70,635,164
/media/thk/workspace/gitlab_proj/tklabeller/proj-02/images/twice04.jpg,1438,880,Chaeyoung,1004,76,1071,173
/media/thk/workspace/gitlab_proj/tklabeller/proj-02/images/twice04.jpg,1438,880,Tzuyu,929,274,1015,386
/media/thk/workspace/gitlab_proj/tklabeller/proj-02/images/twice04.jpg,1438,880,Jeongyeon,220,416,212,366,234,339,288,347,287,403,275,430,223,421
